2 Fondamentaux pour l’utilisation de R – Evaluation d'impact de politiques et projets
…
Explorer les dates de création et de modification :

AP_Vahatra %>%
  select(nom, date_creation, date_modification) %>%
  filter(!is.na(date_creation)) %>%
  arrange(date_creation)

# A tibble: 98 × 3
   nom            date_creation       date_modification  
   <chr>          <dttm>              <dttm>             
 1 Lokobe         1927-12-31 00:00:00 2011-07-06 00:00:00
 2 Analamerana    1956-02-20 00:00:00 2015-04-21 00:00:00
 3 Ankarana       1956-02-20 00:00:00 2015-04-21 00:00:00
 4 Bora           1956-02-20 00:00:00 NA                 
 5 Manongarivo    1956-02-20 00:00:00 NA                 
 6 Marotandrano   1956-02-20 00:00:00 2015-04-28 00:00:00
 7 Bemarivo       1956-09-10 00:00:00 NA                 
 8 Kasijy         1956-09-10 00:00:00 NA                 
 9 Ambatovaky     1958-10-28 00:00:00 2015-04-28 00:00:00
10 Ambohijanahary 1958-10-28 00:00:00 NA                 
# ℹ 88 more rows
…
AP_Vahatra %>%
  summarise(superficie_totale = sum(hectares, na.rm = TRUE))

# A tibble: 1 × 1
  superficie_totale
              <dbl>
1          6372482.

Lister les aires protégées gérées par “Madagascar National Parks” :

AP_Vahatra %>%
  filter(gest_1 == "Madagascar National Parks") %>%
  select(nom, gest_1)

# A tibble: 38 × 2
   nom              gest_1                   
   <chr>            <chr>                    
 1 Ambatovaky       Madagascar National Parks
 2 Ambohitantely    Madagascar National Parks
 3 Analamazaotra    Madagascar National Parks
 4 Analamerana      Madagascar National Parks
 5 Andohahela       Madagascar National Parks
 6 Andranomena      Madagascar National Parks
 7 Anjanaharibe Sud Madagascar National Parks
 8 Ankarafantsika   Madagascar National Parks
 9 Ankarana         Madagascar National Parks
10 Baie de Baly     Madagascar National Parks
# ℹ 28 more rows
…
